Lab 2 work
…
Rows: 131,386
Columns: 2
$ treeID  <dbl> 1, 1, 1, 1, 1, 1, 1, 1, 1, 1, 1, 1, 1, 1, 1, 1, 1, 1, 1, 1, 1,…
$ standID <dbl> 1, 1, 1, 1, 1, 1, 1, 1, 1, 1, 1, 1, 1, 1, 1, 1, 1, 1, 1, 1, 1,…

Question 12: Find a selection pattern that captures all columns with either ‘ID’ or ‘stand’ in the name. Use glimpse to verify the selection.

### Question 12

tree_data %>%
  select(contains("ID"), contains("stand"))

# A tibble: 131,386 × 3
   treeID standID stand
    <dbl>   <dbl> <chr>
 1      1       1 A1   
 2      1       1 A1   
 3      1       1 A1   
 4      1       1 A1   
 5      1       1 A1   
 6      1       1 A1   
 7      1       1 A1   
 8      1       1 A1   
 9      1       1 A1   
10      1       1 A1   
# ℹ 131,376 more rows
…
